{
    "core": {
        "lang": "en-us",
        "mode": "production",
        "initialization": {},
        "autoload": {
            "psr4": {
                "oroboros\\core": "src/core",
                "oroboros\\adapter": "src/core/extensions/adapter/src",
                "oroboros\\archive": "src/core/extensions/archive/src",
                "oroboros\\auth": "src/core/extensions/auth/src",
                "oroboros\\autoload": "src/core/extensions/autoload/src",
                "oroboros\\bootstrap": "src/core/extensions/bootstrap/src",
                "oroboros\\cache": "src/core/extensions/cache/src",
                "oroboros\\cli": "src/core/extensions/cli/src",
                "oroboros\\cluster": "src/core/extensions/cluster/src",
                "oroboros\\codex": "src/core/extensions/codex/src",
                "oroboros\\collection": "src/core/extensions/collection/src",
                "oroboros\\component": "src/core/extensions/component/src",
                "oroboros\\config": "src/core/extensions/config/src",
                "oroboros\\controller": "src/core/extensions/controller/src",
                "oroboros\\database": "src/core/extensions/database/src",
                "oroboros\\debug": "src/core/extensions/debug/src",
                "oroboros\\entity": "src/core/extensions/entity/src",
                "oroboros\\enum": "src/core/extensions/enum/src",
                "oroboros\\environment": "src/core/extensions/environment/src",
                "oroboros\\event": "src/core/extensions/event/src",
                "oroboros\\file": "src/core/extensions/file/src",
                "oroboros\\format": "src/core/extensions/format/src",
                "oroboros\\http": "src/core/extensions/http/src",
                "oroboros\\job": "src/core/extensions/job/src",
                "oroboros\\load": "src/core/extensions/load/src",
                "oroboros\\log": "src/core/extensions/log/src",
                "oroboros\\math": "src/core/extensions/math/src",
                "oroboros\\message": "src/core/extensions/message/src",
                "oroboros\\model": "src/core/extensions/model/src",
                "oroboros\\module": "src/core/extensions/module/src",
                "oroboros\\package": "src/core/extensions/package/src",
                "oroboros\\parse": "src/core/extensions/parse/src",
                "oroboros\\prototype": "src/core/extensions/prototype/src",
                "oroboros\\proxy": "src/core/extensions/proxy/src",
                "oroboros\\regex": "src/core/extensions/regex/src",
                "oroboros\\rest": "src/core/extensions/rest/src",
                "oroboros\\router": "src/core/extensions/router/src",
                "oroboros\\routine": "src/core/extensions/routine/src",
                "oroboros\\service": "src/core/extensions/service/src",
                "oroboros\\stream": "src/core/extensions/stream/src",
                "oroboros\\template": "src/core/extensions/template/src",
                "oroboros\\validate": "src/core/extensions/validate/src",
                "oroboros\\view": "src/core/extensions/view/src",
                "Psr\\Cache": "src/dependencies/psr/cache/src",
                "Psr\\Container": "src/dependencies/psr/container/src",
                "Psr\\Http\\Message": "src/dependencies/psr/http-message/src",
                "Psr\\Link": "src/dependencies/psr/link/src",
                "Psr\\Log": "src/dependencies/psr/log/Psr/Log"
            }
        },
        "cache": {
            "production": {
                "enabled": true,
                "cache_mode": "file",
                "cache_dir": "cache/"
            },
            "staging": {
                "enabled": true,
                "cache_mode": "file",
                "cache_dir": "cache/"
            },
            "development": {
                "enabled": false,
                "cache_mode": "file",
                "cache_dir": "cache/"
            }
        },
        "cli": {
            "console": {
                "use_ascii_colors": true
            },
            "cgi": {
                "use_ascii_colors": false
            },
            "cron": {
                "use_ascii_colors": false
            }
        },
        "errors": {
            "production": {
                "override": false,
                "display_errors": 0,
                "display_startup_errors": 0,
                "error_reporting": 0
            },
            "staging": {
                "override": false,
                "display_errors": 0,
                "display_startup_errors": 0,
                "error_reporting": 0
            },
            "development": {
                "override": true,
                "display_errors": 1,
                "display_startup_errors": 1,
                "error_reporting": -1
            }
        },
        "log": {
            "production": {
                "use_syslog": false,
                "writer": {
                    "use_header": false,
                    "use_buffer": false,
                    "header_title": "Oroboros Error Log",
                    "default_error_logfile": "oroboros_errors.log",
                    "header_timestamp": true,
                    "timestamp_format": "Y-m-d H:i:s"
                },
                "timestamp_format": "Y-m-d H:i:s",
                "timezone": "match_server",
                "default_logger": "\\oroboros\\log\\NullLogger",
                "default_writer": "\\oroboros\\log\\FileLogWriter",
                "verbose": false,
                "level": {
                    "emergency": true,
                    "alert": true,
                    "critical": true,
                    "error": true,
                    "warning": true,
                    "notice": false,
                    "info": false,
                    "debug": false
                }
            },
            "staging": {
                "use_syslog": false,
                "writer": {
                    "use_header": false,
                    "use_buffer": false,
                    "header_title": "Oroboros Error Log",
                    "default_error_logfile": "oroboros_errors.log",
                    "header_timestamp": true,
                    "timestamp_format": "Y-m-d H:i:s"
                },
                "timestamp_format": "Y-m-d H:i:s",
                "timezone": "match_server",
                "default_logger": "\\oroboros\\log\\NullLogger",
                "default_writer": "\\oroboros\\log\\FileLogWriter",
                "verbose": true,
                "level": {
                    "emergency": true,
                    "alert": true,
                    "critical": true,
                    "error": true,
                    "warning": true,
                    "notice": true,
                    "info": false,
                    "debug": false
                }
            },
            "development": {
                "use_syslog": false,
                "writer": {
                    "use_header": true,
                    "use_buffer": false,
                    "header_title": "Oroboros Error Log",
                    "default_error_logfile": "oroboros_errors.log",
                    "header_timestamp": true,
                    "timestamp_format": "Y-m-d H:i:s"
                },
                "timestamp_format": "Y-m-d H:i:s",
                "timezone": "match_server",
                "default_logger": "\\oroboros\\log\\NullLogger",
                "default_writer": "\\oroboros\\log\\FileLogWriter",
                "verbose": true,
                "level": {
                    "emergency": true,
                    "alert": true,
                    "critical": true,
                    "error": true,
                    "warning": true,
                    "notice": true,
                    "info": true,
                    "debug": true
                }
            }
        },
        "database": {},
        "codex": {
            "production": {
                "cache_enabled": true,
                "cache_mode": "file",
                "cache_dir": "codex/",
                "lexicon": {
                    "cache_enabled": true,
                    "cache_mode": "file",
                    "cache_dir": "codex/lexicon/",
                    "retain_versions": true
                }
            },
            "staging": {
                "cache_enabled": true,
                "cache_mode": "file",
                "cache_dir": "codex/",
                "lexicon": {
                    "cache_enabled": true,
                    "cache_mode": "file",
                    "cache_dir": "codex/lexicon/",
                    "retain_versions": true
                }
            },
            "development": {
                "cache_enabled": true,
                "cache_mode": "file",
                "cache_dir": "codex/",
                "lexicon": {
                    "enabled": true,
                    "cache_mode": "file",
                    "cache_dir": "codex/lexicon/",
                    "retain_versions": true
                }
            }
        },
        "prototype": {
            "template": "\\oroboros\\prototype\\Prototyper"
        },
        "composer": {},
        "bower": {},
        "git": {},
        "debug": {
            "production": {
                "enabled": false,
                "ajax": false,
                "server": false,
                "client": false,
                "core": false,
                "apps": false,
                "extensions": false,
                "modules": false,
                "components": false
            },
            "staging": {
                "enabled": false,
                "ajax": false,
                "server": false,
                "client": false,
                "core": false,
                "apps": false,
                "extensions": false,
                "modules": false,
                "components": false
            },
            "development": {
                "enabled": true,
                "ajax": true,
                "server": true,
                "client": true,
                "core": true,
                "apps": true,
                "extensions": true,
                "modules": true,
                "components": true
            }
        }
    }
}
