{
    "meta" : {
        "name": "Default Theme",
        "author": "Oroboros",
        "license": "MIT",
        "site": null,
        "repo": null
    },
    "resources": {
        "scripts": {},
        "css": {},
        "img": {},
        "fonts": {}
    },
    "profile": {}
}
